Name	Description	Source	Target
aaxtomp3	Convert Audible's .aax filetype to MP3, FLAC, M4A, or OPUS	A	
acpid	A daemon for delivering ACPI power management events with netlink support	R	
afew	Initial tagging script for notmuch mail	R	
alias-tips-git	An oh-my-zsh plugin to help remembering those aliases you defined once	A	
alsa-utils	Advanced Linux Sound Architecture - Utilities	R	
anki-bin	Helps you remember facts (like words/phrases in a foreign language) efficiently. Installed with wheel.	A	
ansible	Official assortment of Ansible collections	R	
ansible-lint	Checks playbooks for practices and behaviour that could potentially be improved.	R	
arch-wiki-lite	Arch Wiki without HTML. 1/9 as big, easily searched & viewable on console	R	
arduino	Arduino prototyping platform SDK	R	
arduino-avr-core	Arduino AVR core with upstream avr-gcc and avrdude	R	
arduino-cli	Arduino command line interface	R	
asciinema	Record and share terminal sessions	R	
asix-ax88179-dkms	A kernel module for ASIX AX88178A AX88179 USB 3.0 network adapters	A	
aspell-de	German dictionary for aspell	R	
aspell-en	English dictionary for aspell	R	
atool	A script for managing file archives of various types	R	
aubio	A tool for extracting annotations from audio signals	R	
barrier	Open-source KVM software based on Synergy (GUI)	R	
base	Minimal package set to define a basic Arch Linux installation	R	
base-devel	Basic tools to build Arch Linux packages	R	
bash-bats	Bash Automated Testing System	R	
bash-completion	Programmable completion for the bash shell	R	
bash-language-server	Bash language server implementation based on Tree Sitter and its grammar for Bash	R	
bat	Cat clone with syntax highlighting and git integration	R	
bc	An arbitrary precision calculator language	R	
beancount	A personal double entry accounting and budgeting software	P		git+https://github.com/bratekarate/beancount-categorizer.git,beancount-dkb,fava,python-magic,smart-importer
bearssl	Implementation of the SSL/TLS protocol (RFC 5246) written in C	R	
beets	Organize your music collection from the command line	P		beetcamp
bemoji-git	Emoji picker that remembers your favorites.	A	
bibclean	BibTeX and Scribe bibliography prettyprinter and syntax checker	A	
biber	A Unicode-capable BibTeX replacement for biblatex users	R	
bibtool	A tool for manipulating BibTeX files	R	
bind	A complete, highly portable implementation of the DNS protocol	R	
bluetuith-bin	A TUI based bluetooth manager	A	
bluez-utils	Development and debugging utilities for the bluetooth protocol stack	R	
brightnessctl	Lightweight brightness control tool	R	
btop	A monitor of system resources, bpytop ported to C++	R	
caddy	Fast web server with automatic HTTPS	R	
calcurse	A text-based personal organizer	R	
catdoc	A convertor for Microsoft Word, Excel, PowerPoint and RTF Files to text	R	
chafa	Image-to-text converter supporting a wide range of symbols and palettes, transparency, animations, etc.	R	
cinny-desktop-bin	Matrix client focusing primarily on a simple, elegant and secure interface (binary release)	A	
clipman	A simple clipboard manager for Wayland	A	
cups-pdf	PDF printer for cups	R	
cups-pk-helper	A helper that makes system-config-printer use PolicyKit	R	
dbus-broker	Linux D-Bus Message Broker	R	
dcnnt	Yet another tool to connect Android phone with desktop similar to KDE Connect	A	
dconf-editor	GSettings editor for GNOME	R	
dell-command-configure	Configure various BIOS features on Dell laptops	A	
devour	Window Manager agnostic swallowing feature for terminal emulators	A	
dhcpcd	RFC2131 compliant DHCP client daemon	R	
diff-so-fancy	Good-looking diffs with diff-highlight and more	R	
distrobox	Use any linux distribution inside your terminal.	A	
dnsmasq	Lightweight, easy to configure DNS forwarder and DHCP server	R	
docker	Pack, ship and run any application as a lightweight container	R	
docker-compose	Fast, isolated development environments using Docker	R	
docx2txt	Recovers text from DOCX files, with good formatting.	R	
dos2unix	Text file format converter	R	
duf	Disk Usage/Free Utility	R	
dust	A more intuitive version of du in rust	R	
efm-langserver	General purpose Language Server	A	
enca	Charset analyser and converter	R	
entr	Run arbitrary commands when files change	R	
euporie	View and work with ipnb Python notebooks from the cli	P
exa	ls replacement	R	
exercism-bin	Command line client for exercism.io	A	
exfat-utils	Utilities for exFAT file system	R	
f3	Simple tool that tests flash cards capacity and performance to see if they live up to claimed specifications	A	
fasd	Command-line productivity booster, offers quick access to files and directories	R	
fd	Simple, fast and user-friendly alternative to find	R	
ffmpegthumbnailer	Lightweight video thumbnailer that can be used by file managers	R	
firefox	Standalone web browser from mozilla.org	R	
flavours	A simple and easy cli to build and use base16 schemes	A	
fonts-cjk	Linux 下的免费商用字体包	A	
freerdp	Free implementation of the Remote Desktop Protocol (RDP)	R	
fwupd	Simple daemon to allow session software to update firmware	R	
fzf-tab-bin-git	Replace zsh's default completion selection menu with fzf (git version). This package also compiles the optional binary module.	A	
gallery-dl	Command-line program to download image-galleries and collections from several image hosting sites	A	
gamemode	A daemon/lib combo that allows games to request a set of optimisations be temporarily applied to the host OS	R	
gimp	GNU Image Manipulation Program	R	
git-lfs	Git extension for versioning large files	R	
gitlint	Git commit message linter	A	
gitui	Blazing fast terminal-ui for git written in Rust	R	
gk6x-bin	Configure keys, macros, and lighting on GK6X keyboards (GK64, GK84, GK61, etc)	A	
glances	CLI curses-based monitoring tool	R	
glfw-wayland	A free, open source, portable framework for graphical application development (wayland)	R	
glow	Command-line markdown renderer	R	
gnu-netcat	GNU rewrite of netcat, the network piping application	R	
gnumeric	A GNOME Spreadsheet Program	R	
gnuplot	Plotting package which outputs to X11, PostScript, PNG, GIF, and others	R	
go-md2man	A markdown to manpage generator	R	
gomuks	A terminal based Matrix client written in Go	A	
gopls	Language server for Go programming language	R	
gotty-bin	Simple command line tool that turns your CLI tools into web applications.	A	
grim	Screenshot utility for Wayland	R	
grub	GNU GRand Unified Bootloader (2)	R	
gsimplecal	Simple and lightweight GTK calendar	R	
gst-plugins-bad	Multimedia graph framework - bad plugins	R	
gstreamer-vaapi	Multimedia graph framework - vaapi plugin	R	
gucharmap	Gnome Unicode Charmap	R	
haveged	Entropy harvesting daemon using CPU timings	R	
heimdall	Tool suite used to flash firmware (ROMs) onto Samsung Galaxy S devices	R	
htop	Interactive process viewer	R	
hugo	Fast and Flexible Static Site Generator in Go	R	
iftop	Display bandwidth usage on an interface	R	
imapfilter	A mail filtering utility for processing IMAP mailboxes	A	
imv	Image viewer for Wayland and X11	R	
intel-ucode	Microcode update files for Intel CPUs	R	
iputils	Network monitoring tools, including ping	R	
ipython	An enhanced Interactive Python shell.	R	
isbntools	A variety of tools to work with isbn addresses	P
iucode-tool	Tool to manipulate Intel® IA-32/X86-64 microcode bundles	R	
iwd	Internet Wireless Daemon	R	
jiq-bin	Interactive JSON query tool using jq expressions	A	
jmtpfs	FUSE and libmtp based filesystem for accessing MTP (Media Transfer Protocol) devices	A	
jpdftweak	A Swiss Army Knife GUI application for PDF documents	A	
jrnl	Collect your thoughts and notes without leaving the command line	R	
jupyter-nbclient	A tool for running Jupyter Notebooks in different execution contexts.	R	
kanshi	Dynamic output configuration for Wayland WMs	R	
keyd	A key remapping daemon for linux.	A	
khal	CLI calendar application build around CalDAV	R	
khard	Console address book manager	R	
kubo	IPFS implementation in Go	R	
lazygit	Simple terminal UI for git commands	R	
lib32-gamemode	A daemon/lib combo that allows games to request a set of optimisations be temporarily applied to the host OS	R	
libdvdcss	Portable abstraction library for DVD decryption	R	
libfido2	Library functionality for FIDO 2.0, including communication with a device over USB	R	
libqalculate	Multi-purpose desktop calculator	R	
libreoffice-fresh	LibreOffice branch which contains new features and program enhancements	R	
libva-intel-driver	VA-API implementation for Intel G45 and HD Graphics family	R	
libvirt	API for controlling virtualization engines (openvz,kvm,qemu,virtualbox,xen,etc)	R	
linux	The Linux kernel and modules	R	
linux-firmware	Firmware files for Linux	R	
linux-headers	Headers and scripts for building modules for the Linux kernel	R	
linux-lts	The LTS Linux kernel and modules	R	
littler	a hash-bang and simple command line pipe front end for GNU R	A	
logrotate	Rotates system logs automatically	R	
lsof	Lists open files for running Unix processes	R	
lswt	List Wayland toplevels	A	
lua-format	LuaFormatter - Code formatter for Lua	A	
lua-language-server	Lua Language Server coded by Lua	R	
lua51	Powerful lightweight programming language designed for extending applications	R	
luacheck	A tool for linting and static analysis of Lua code	R	
lutris	Open Gaming Platform	R	
ly	TUI display manager	A	
lynx	A text browser for the World Wide Web	R	
maestral	Open-source Dropbox client	A	
magic-wormhole	Securely transfer data between computers	R	
maim	Utility to take a screenshot using imlib2	R	
mako	Lightweight notification daemon for Wayland	R	
man-db	A utility for reading man pages	R	
man-pages	Linux man pages	R	
markdown-anki-decks	Construct and modify anki decks directly with markdown	P
markdownlint-cli	MarkdownLint Command Line Interface	A	
masterpdfeditor-free	A complete solution for creation and editing PDF files - Free version without watermark	A	
mbsync-git	free (GPL) mailbox synchronization program	A	
mediainfo	Supplies technical and tag information about a video or audio file (CLI interface)	R	
mermaid-cli	Generation of diagram and flowchart from text in a similar manner as markdown (CLI)	A	
micro	Modern and intuitive terminal-based text editor	R	
mimeo	Open files by MIME-type or file name using regular expressions.	A	
minidlna	A DLNA/UPnP-AV Media server (aka ReadyDLNA)	R	
minio-client	Replacement for ls, cp, mkdir, diff and rsync commands for filesystems and object storage	R	
mopidy-bandcamp	Mopidy backend for Bandcamp	A	
mopidy-iris	A Mopidy Web client that utilizes the Spotify and EchoNest frameworks. (Formerly Spotmop)	A	
mopidy-local	Mopidy extension for local media playback	A	
mopidy-mpd	Mopidy extension for controlling playback from MPD clients	A	
mopidy-mpris	Mopidy extension for controlling Mopidy through the MPRIS D-Bus interface	A	
mopidy-scrobbler	Mopidy extension for scrobbling played tracks to Last.fm	A	
mopidy-somafm	Mopidy extension for playing music from SomaFM	A	
mopidy-spotify	Mopidy extension for playing music from Spotify	A	
mopidy-youtube	Mopidy extension for playing music from Youtube	A	
moreutils	A growing collection of the unix tools that nobody thought to write thirty years ago	R	
mosh	Mobile shell, surviving disconnects with local echo and line editing	R	
mpv-mpris	MPRIS plugin for mpv	R	
msmtp	A mini smtp client	R	
mupdf-gl	Lightweight PDF and XPS viewer with OpenGL backend	R	
mutt-ics	Show calendar event details in mutt	A	
ncmpcpp	Almost exact clone of ncmpc with some new features	R	
needrestart	Restart daemons after library updates.	A	
neomutt	A version of mutt with added features	R	
neovim	Fork of Vim aiming to improve user experience, plugins, and GUIs	R	
net-tools	Configuration tools for Linux networking	R	
netctl	Profile based systemd network management	R	
nethogs	A net top tool which displays traffic used per process instead of per IP or interface	R	
network-manager-applet	Applet for managing network connections	R	
networkmanager-openconnect	NetworkManager VPN plugin for OpenConnect	R	
newsboat	RSS/Atom feed reader for text terminals	R	
nextcloud-client	Nextcloud desktop client	R	
nfs-utils	Support programs for Network File Systems	R	
nmap	Utility for network discovery and security auditing	R	
nodejs-pandiff	Prose diffs for any document format supported by Pandoc	A	
noto-fonts-emoji	Google Noto emoji fonts	R	
npm	A package manager for javascript	R	
nss-mdns	glibc plugin providing host name resolution via mDNS	R	
nsxiv	Neo (or New or Not) Simple (or Small or Suckless) X Image Viewer	A	
ntfs-3g	NTFS filesystem driver and utilities	R	
ntp	Network Time Protocol reference implementation	R	
nushell	A new type of shell	R	
nzbget	Download from Usenet using .nzb files	R	
offpunk-git	Fork of the command-line Gemini client AV-98 with added offline capabilities	A	
oh-my-zsh-git	A community-driven framework for managing your zsh configuration. Includes 180+ optional plugins and over 120 themes to spice up your morning, and an auto-update tool so that makes it easy to keep up with the latest updates from the community	A	
os-prober	Utility to detect other OSes on a set of drives	R	
pacman-contrib	Contributed scripts and tools for pacman systems	R	
papis-tui	A tui interface for papis bibliography manager	P		whoosh
parallel	A shell tool for executing jobs in parallel	R	
parsec-bin	Remotely connect to a gaming pc for a low latency remote computing experience	A	
paru-bin	Feature packed AUR helper	A	
pass-coffin	A password store extension that hides data inside a signed and encrypted coffin	A	
pass-ssh	A pass extension that creates ssh keys with an automatically generated passphrases stored in pass and outputs the public key using fzf or rofi	A	
pavucontrol	PulseAudio Volume Control	R	
pbzip2	Parallel implementation of the bzip2 block-sorting file compressor	R	
pdfjs	PDF reader in javascript	R	
pdftk	Command-line tool for working with PDFs	R	
peek	Simple screen recorder with an easy to use interface	R	
perf	Linux kernel performance auditing tool	R	
perl-authen-sasl	Perl/CPAN Module Authen::SASL : SASL authentication framework	R	
piavpn-bin	Private Internet Access client	A	
pigz	Parallel implementation of the gzip file compressor	R	
pipewire-alsa	Low-latency audio/video router and processor - ALSA configuration	R	
playerctl	mpris media player controller and lib for spotify, vlc, audacious, bmp, xmms2, and others.	R	
podman	Tool and library for running OCI-based containers in pods	R	
powertop	A tool to diagnose issues with power consumption and power management	R	
prettier	An opinionated code formatter for JS, JSON, CSS, YAML and much more	R	
protonvpn	Official ProtonVPN metapackage that installs protonvpn-gui and protonvpn-cli, maintained by the ProtonVPN team.	A	
ptpython	Python REPL build on top of prompt_toolkit	A	
pubs	Your bibliography on the command line	A	
pulsemixer	CLI and curses mixer for pulseaudio	R	
pv	A terminal-based tool for monitoring the progress of data through a pipeline.	R	
pyright	Type checker for the Python language	R	
python-adblock	Brave's adblock library in Python	R	
python-dictcc	commandline tool for dict.cc	A	
python-docs	Set of HTML documentation for python	R	
python-html2text	A HTML to markdown-structured text converter	R	
python-openpyxl	A Python library to read/write Excel 2007 xlsx/xlsm files	R	
python-pagelabels	Python library to manipulate PDF page numbers and labels.	A	
python-pancritic	CriticMarkdup parser with optional pandoc backend	A	
python-pdfminer	Python PDF Parser	R	
python-pip	The PyPA recommended tool for installing Python packages	R	
python-pipx	Install and Run Python Applications in Isolated Environments	R	
python-pybluez	Python wrapper for the BlueZ Bluetooth stack	R	
python-pybtex	A BibTeX-compatible bibliography processor written in Python	R	
python-pynvim	Python client for Neovim	R	
python-pyqt6-3d	Python bindings for Qt3D	R	
python-pyqt6-charts	Python bindings for QtChart	R	
python-pyqt6-datavisualization	Python bindings for QtDataVisualization	R	
python-pyqt6-networkauth	Python bindings for QtNetworkAuth	R	
python-readability-lxml	Fast html to text parser (article readability tool) python library	R	
python-slugify	A Python slugify application that handles unicode	R	
python-tasklib	Python library for interacting with taskwarrior databases	R	
qemu-desktop	A QEMU setup for desktop environments	R	
qt5-wayland	Provides APIs for Wayland	R	
qt5-xmlpatterns	Support for XPath, XQuery, XSLT and XML schema validation	R	
qt6-svg	Classes for displaying the contents of SVG files	R	
qt6-wayland	Provides APIs for Wayland	R	
qtcurve-gtk2	A configurable set of widget styles for KDE and Gtk	R	
quarto-cli-bin	An open-source scientific and technical publishing system built on Pandoc (binary from official repo)	A	
qutebrowser	A keyboard-driven, vim-like browser based on PyQt5	R	
refind	An EFI boot manager	R	
refind-btrfs	Generate rEFInd manual boot stanzas from Btrfs snapshots	A	
reflector	A Python 3 module and script to retrieve and filter the latest Pacman mirror list.	R	
remind	A sophisticated calendar and alarm program.	R	
remmina	remote desktop client written in GTK+	R	
restic	Fast, secure, efficient backup program	R	
ripgrep-all	rga: ripgrep, but also search in PDFs, E-Books, Office documents, zip, tar.gz, etc.	R	
river	A dynamic tiling wayland compositor	R	
rivercarro	A slightly modified version of rivertile layout generator for river.	A	
rng-tools	Random number generator related utilities	R	
sc-im	A spreadsheet program based on SC	A	
scc	Sloc, Cloc and Code: a very fast accurate code counter with complexity calculations and COCOMO estimates written in pure Go	A	
scrcpy	Display and control your Android device	R	
screen	Full-screen window manager that multiplexes a physical terminal	R	
sfz	A simple static file server	A	
shellcheck-bin	Shell script analysis tool (binary release, static)	A	
shfmt	Format shell programs	R	
slurp	Select a region in a Wayland compositor	R	
smartmontools	Control and monitor S.M.A.R.T. enabled ATA and SCSI Hard Drives	R	
snap-pac	Pacman hooks that use snapper to create pre/post btrfs snapshots like openSUSE's YaST	R	
speedtest-cli	Command line interface for testing internet bandwidth using speedtest.net	R	
sshfs	FUSE client based on the SSH File Transfer Protocol	R	
steam	Valve's digital software delivery system	R	
stow	Manage installation of multiple softwares in the same directory tree	R	
sudo	Give certain users the ability to run some commands as root	R	
surfraw	Shell Users' Revolutionary Front Rage Against the Web	R	
swaybg	Wallpaper tool for Wayland compositors	R	
swayidle	Idle management daemon for Wayland	R	
swww	Efficient animated wallpaper daemon for wayland, controlled at runtime.	A	
task-spooler	Queue up tasks from the shell for batch execution	A	
taskopen	Script for taking notes and open urls with taskwarrior	A	
tasksh	A shell command that wraps Taskwarrior commands	A	
tea	A command line tool to interact with Gitea servers	R	
tex-gyre-fonts	Substitute PostScript fonts in OpenType format	R	
texlab	A cross-platform implementation of the Language Server Protocol for LaTeX.	R	
thermald	The Linux Thermal Daemon program from 01.org	R	
tidy-viewer	CLI csv pretty printer that uses column styling	A	
timew	Timewarrior, A command line time tracking application	R	
tlp	Linux Advanced Power Management	R	
tmux	Terminal multiplexer	R	
toilet	free replacement for the FIGlet utility.	A	
topgrade-bin	Invoke the upgrade procedure of multiple package managers	A	
traceroute	Tracks the route taken by packets over an IP network	R	
translate-shell	A command-line interface and interactive shell for Google Translate	R	
transmission-qt	Fast, easy, and free BitTorrent client (Qt GUI)	R	
ttf-brill	Brill Typeface by John Hudson for Brill Publishing House	A	
ttf-comic-neue	Comic Neue aspires to be the casual script choice for everyone including the typographically savvy.	A	
ttf-heuristica	A serif latin & cyrillic font, derived from the "Adobe Utopia" font by Apanov	A	
ttf-iosevka-nerd	Patched font Iosevka from nerd fonts library	R	
ttf-signika	Sans-serif typeface from Google by Anna Giedryś	A	
ttf-victor-mono-nerd	Patched font Victor Mono from nerd fonts library	R	
tuir	Browse Reddit from your terminal	A	
tut	A TUI for Mastodon with vim inspired keys	A	
typescript-language-server	Language Server Protocol (LSP) implementation for TypeScript using tsserver	R	
udiskie	Removable disk automounter using udisks	R	
ufw	Uncomplicated and easy to use CLI tool for managing a netfilter firewall	R	
unrar	The RAR uncompression program	R	
unrtf	Command-line program which converts RTF documents to other formats	R	
urlview-xdg-git	A curses URL parser for text files. Git version, adds support for QUITONLAUNCH option and XDG Base Directory specification compliance.	A	
usql	A universal command-line interface for SQL databases	A	
v4l2loopback-dkms	v4l2-loopback device – module sources	R	
vagrant	Build and distribute virtualized development environments	R	
vale-bin	A customizable, syntax-aware linter for prose	A	
vdirsyncer	Synchronize CalDAV and CardDAV.	R	
viddy	A modern watch command	A	
vifm	A file manager with curses interface, which provides Vi[m]-like environment	R	
vim-language-server	VimScript language server	A	
virt-manager	Desktop user interface for managing virtual machines	R	
virtualbox	Powerful x86 virtualization for enterprise as well as home use	R	
virtualbox-guest-iso	The official VirtualBox Guest Additions ISO image	R	
visidata	Terminal spreadsheet multitool for discovering and arranging data	R	
viu	Simple terminal image viewer	R	
wallabag-client	Command line client for the self hosted read-it-later app Wallabag	A	
wavemon	Ncurses-based monitoring application for wireless network devices	R	
waybar	Highly customizable Wayland bar for Sway and Wlroots based compositors	R	
waylock	A simple screenlocker for wayland compositors	R	
wdisplays	GUI display configurator for wlroots compositors	A	
wev	tool for debugging wayland events, similar to xev	A	
wezterm	A GPU-accelerated cross-platform terminal emulator and multiplexer	R	
wf-recorder	Screen recorder for wlroots-based compositors such as sway	R	
wget	Network utility to retrieve files from the Web	R	
wireguard-tools	next generation secure network tunnel - tools for configuration	R	
wireless_tools	Tools allowing to manipulate the Wireless Extensions	R	
wlopm	Wayland output power management.	A	
wlsunset	Day/night gamma adjustments for Wayland compositors	A	
wpa_actiond	Daemon that connects to wpa_supplicant and handles connect and disconnect events	A	
wtype	xdotool type for wayland	R	
xdg-user-dirs	Manage user directories like ~/Desktop and ~/Music	R	
xsv	A CLI for indexing, slicing, analyzing, splitting and joining CSV files	R	
yaml-language-server	YAML Language Server	R	
yarn	Fast, reliable, and secure dependency management	R	
yt-dlp	A youtube-dl fork with additional features and fixes	R	
ytfzf	A POSIX script to find and watch youtube videos from the terminal	R	
yubikey-manager	Python library and command line tool for configuring a YubiKey	R	
zathura-cb	Adds comic book support to zathura	R	
zathura-djvu	DjVu support for Zathura	R	
zathura-pdf-mupdf	PDF support for Zathura (MuPDF backend) (Supports PDF, ePub, and OpenXPS)	R	
zk	A command-line tool helping you to maintain a Zettelkasten or personal wiki	R	
zotero-bin	Zotero Standalone. Is a free, easy-to-use tool to help you collect, organize, cite, and share your research sources.	A	
zq	Tooling for super-structured data	A	
zsh-autosuggestions	Fish-like autosuggestions for zsh	R	
zsh-fast-syntax-highlighting	Optimized and extended zsh-syntax-highlighting	A	
zsh-pure-prompt	Pretty, minimal and fast ZSH prompt	A	
